{
  "entities": [
    {
      "name": "One",
      "schema": {
        "$schema": "http://json-schema.org/draft-04/schema#",
        "description": "JSON Schema draft v4 for One",
        "definitions": {
          "schemaArray": {
            "type": "array",
            "minItems": 1,
            "items": { "$ref": "#" }
          },
          "positiveInteger": {
            "type": "integer",
            "minimum": 0
          },
          "positiveIntegerDefault0": {
            "allOf": [ { "$ref": "#/definitions/positiveInteger" }, { "default": 0 } ]
          },
          "simpleTypes": {
            "enum": [ "array", "boolean", "integer", "null", "number", "object", "string" ]
          },
          "stringArray": {
            "type": "array",
            "items": { "type": "string" },
            "minItems": 1,
            "uniqueItems": true
          }
        },
        "type": "object",
        "name": "One",
        "properties": {
          "fname": {
            "type": "string"
          },
          "lname": {
            "type": "string"
          },
          "age": { "$ref": "#/definitions/positiveInteger" }
        },
        "required": ["fname", "lname", "age"],
        "default": {
          "fname": "Roger",
          "lname": "Rabbit",
          "age": 33
        }
      }
    },
    {
      "name": "Two",
      "schema": {
        "$schema": "http://json-schema.org/draft-04/schema#",
        "description": "JSON Schema draft v4 for One",
        "definitions": {
          "schemaArray": {
            "type": "array",
            "minItems": 1,
            "items": { "$ref": "#" }
          },
          "positiveInteger": {
            "type": "integer",
            "minimum": 0
          },
          "positiveIntegerDefault0": {
            "allOf": [ { "$ref": "#/definitions/positiveInteger" }, { "default": 0 } ]
          },
          "simpleTypes": {
            "enum": [ "array", "boolean", "integer", "null", "number", "object", "string" ]
          },
          "stringArray": {
            "type": "array",
            "items": { "type": "string" },
            "minItems": 1,
            "uniqueItems": true
          }
        },
        "type": "object",
        "name": "One",
        "properties": {
          "name": {
            "type": "string"
          },
          "less18": {
            "type": "boolean"
          },
          "more18": {
            "type": "boolean"
          }
        },
        "required": ["name", "less18", "more18"],
        "default": {
          "name": "Rabbit,Roger",
          "less18": false,
          "more18": true
        }
      }
    }
  ],
  "input": {
    "source": "One"
  },
  "output": {
    "source": "Two"
  },
  "steps": [
    {
      "order": 0,
      "code": "{h update ('fname, \"Roger\") update ('lname, \"Rabbit\") update ('age, 33)}"
    },
    {
      "order": 1,
      "code": "{val lm: (Boolean, Boolean) = if (age < 18) (true, false) else (false, true)\nh append ('less18, lm._1) append ('more18, lm._2)}"
    },
    {
      "order": 2,
      "code": "h update ('fname, ln) update ('lname, fn)"
    },
    {
      "order": 3,
      "code": "h append ('name, h3('fname) + \",\" + h3('lname))"
    }
  ]
}